<?xml version="1.0" encoding="UTF-8"?>
<svg width="26px" height="26px" viewBox="0 0 26 26" version="1.1" xmlns="http://www.w3.org/2000/svg" xmlns:xlink="http://www.w3.org/1999/xlink">
    <!-- Generator: Sketch 49.1 (51147) - http://www.bohemiancoding.com/sketch -->
    <title>10</title>
    <desc>Created with Sketch.</desc>
    <defs></defs>
    <g id="Page-1" stroke="none" stroke-width="1" fill="none" fill-rule="evenodd">
        <g id="menu" transform="translate(-18.000000, -791.000000)" fill="#BBBBBB">
            <g id="nav" transform="translate(0.000000, 235.000000)">
                <g id="10" transform="translate(18.000000, 556.000000)">
                    <path d="M13,6.28368 C9.2625,6.28368 6.28368,9.31736 6.28368,13 C6.3375078,14.57118 6.77118,16.19618 7.8,17.27882 C8.9375,18.63264 10.67118,19.71632 13,19.71632 C16.7375,19.71632 19.71632,16.68264 19.71632,13 C19.71632,9.2625 16.7375,6.28368 13,6.28368 Z M8.17882,15.925 L9.75,14.35382 C9.9125,14.19132 9.9663278,14.02882 9.9125,13.8125 C9.64132,12.675 9.9125,11.48368 10.77882,10.67118 C11.42882,10.02118 12.35,9.64236 13.27014,9.69618 L11.53646,11.42986 C11.3201322,11.6461878 11.3201322,11.97118 11.53646,12.18854 L13.86528,14.57222 C13.9739522,14.6808922 14.0816078,14.73472 14.2441,14.73472 C14.4065922,14.73472 14.51528,14.6808922 14.62292,14.57222 L16.30174,12.8934 C16.3555678,13.75972 15.97674,14.6809 15.32674,15.3309 C14.51424,16.1434 13.26806,16.4684 12.18542,16.19722 C12.02292,16.1433922 11.8066,16.19722 11.6441,16.35972 L10.128794,17.875026 C9.316294,17.441346 8.721128,16.791346 8.178794,15.925026 L8.17882,15.925 Z M13,18.63368 C12.35,18.63368 11.75382,18.5250078 11.15868,18.30868 L12.1875,17.27986 C13.59618,17.55104 15.05868,17.11736 16.0875,16.08854 C17.27882,14.89722 17.65868,13.21736 17.11632,11.64722 C17.0624922,11.48472 16.8999922,11.32222 16.7375,11.2684 C16.575,11.2145722 16.35868,11.2684 16.25,11.4309 L14.24618,13.43472 L12.675,11.86354 L14.73368,9.80486 C14.8423522,9.6961878 14.89618,9.47986 14.89618,9.31736 C14.8423522,9.15486 14.73368,8.99236 14.57118,8.93854 C14.028846,8.7750234 13.541346,8.666346 13,8.666346 C11.8625,8.666346 10.725,9.100026 9.9125,9.912526 C8.88368,10.941346 8.45,12.403846 8.72118,13.812526 L7.6375,14.896206 C7.4211722,14.300026 7.3125,13.650026 7.3125,13.000026 C7.3125,9.858706 9.85868,7.366346 12.94618,7.366346 C16.0875,7.366346 18.57986,9.912526 18.57986,13.000026 C18.6336878,16.141346 16.141346,18.633706 13,18.633706 L13,18.63368 Z" id="Fill-1"></path>
                    <path d="M25.56632,10.4 L22.2625,9.69618 C22.1538278,9.425 22.0461722,9.1 21.88368,8.82986 L23.725,5.95868 C23.8875,5.7423522 23.8336722,5.47118 23.6711722,5.30868 L20.7461722,2.38368 C20.5288278,2.1663356 20.2586722,2.1125 20.0413382,2.2750078 L17.1701582,4.1163278 C16.8989782,3.9538278 16.5739782,3.8451478 16.3038382,3.7375078 L15.6000182,0.4336878 C15.5461904,0.1625078 15.3288382,7.8e-06 15.0586982,7.8e-06 L10.9423782,7.8e-06 C10.6711982,7.8e-06 10.4548782,0.1625078 10.4010582,0.4336878 L9.6972382,3.7375078 C9.4260582,3.84618 9.1010582,3.9538356 8.8309182,4.1163278 L5.9586982,2.2750078 C5.7413538,2.1125078 5.4711982,2.1663356 5.2538642,2.3288356 L2.32886446,5.2538356 C2.16636446,5.47118 2.11253666,5.7413356 2.27503666,5.9586696 L4.1163564,8.8298496 C3.9538564,9.1010296 3.8451764,9.4260296 3.7375364,9.6961696 L0.43371666,10.3999896 C0.16253653,10.4538174 3.6542428e-05,10.6711696 3.6542428e-05,10.9413096 L3.6542428e-05,15.0576296 C3.6542428e-05,15.3288096 0.16253653,15.5451296 0.43371666,15.5989496 L3.7375364,16.3027696 C3.8462086,16.5739496 3.9538642,16.8989496 4.1163564,17.1690896 L2.27503666,20.0413096 C2.11253666,20.2576374 2.16636446,20.5288096 2.32886446,20.6913096 L5.2538642,23.6163096 C5.4163642,23.7788096 5.7413642,23.8326374 5.9038642,23.6701374 L8.7750442,21.8288174 C9.0462242,21.9913174 9.3712242,22.0999974 9.6413642,22.2076374 L10.3451842,25.5114574 C10.399012,25.7826373 10.6163642,25.9451373 10.8865042,25.9451373 L15.0028242,25.9451373 C15.2740042,25.9451373 15.4903242,25.7826373 15.5441442,25.5114574 L16.2479642,22.2076374 C16.5191442,22.0989652 16.8441442,21.9913096 17.1142842,21.8288174 L19.9854642,23.6701374 C20.201792,23.8326374 20.4729642,23.7788096 20.6354642,23.6163096 L23.5604642,20.6913096 C23.7229642,20.5288096 23.776792,20.2038096 23.614292,20.0413096 L21.772972,17.1701296 C21.935472,16.8989496 22.044152,16.5739496 22.151792,16.3038096 L25.455612,15.5999896 C25.726792,15.5461618 25.889292,15.3288096 25.889292,15.0586696 L25.889292,10.9423496 C25.9999948,10.6711696 25.8374948,10.4538356 25.56632,10.4000156 L25.56632,10.4 Z M24.91632,14.625 L21.72014,15.32882 C21.55764,15.3826478 21.39514,15.49132 21.34132,15.70764 C21.17882,16.14132 21.01632,16.57396 20.8,17.00764 C20.6913278,17.17014 20.7461722,17.38646 20.8,17.54896 L22.5875,20.31146 L20.25868,22.64028 L17.49618,20.85278 C17.33368,20.7441078 17.11736,20.7441078 16.95486,20.85278 C16.52118,21.0691078 16.08854,21.2316 15.65486,21.3941 C15.49236,21.4479278 15.32986,21.6104278 15.27604,21.77292 L14.625026,24.91632 L11.375026,24.91632 L10.671206,21.72014 C10.6173782,21.55764 10.508706,21.39514 10.292386,21.34132 C9.858706,21.17882 9.426066,21.01632 8.992386,20.8 C8.829886,20.6913278 8.613566,20.7461722 8.451066,20.8 L5.688566,22.5875 L3.359746,20.25868 L5.147246,17.49618 C5.2559182,17.33368 5.2559182,17.11736 5.147246,16.95486 C4.9309182,16.52118 4.768426,16.08854 4.605926,15.65486 C4.5520982,15.49236 4.3895982,15.32986 4.227106,15.27604 L1.08370626,14.625026 L1.08370626,11.375026 L4.279886,10.671206 C4.442386,10.6173782 4.604886,10.508706 4.658706,10.292386 C4.821206,9.858706 4.983706,9.426066 5.200026,8.992386 C5.3086982,8.829886 5.2538538,8.613566 5.200026,8.451066 L3.412526,5.688566 L5.741346,3.359746 L8.503846,5.147246 C8.666346,5.2559182 8.882666,5.2559182 9.045166,5.147246 C9.478846,4.9309182 9.911486,4.768426 10.345166,4.605926 C10.507666,4.5520982 10.670166,4.3895982 10.723986,4.227106 L11.375,1.083706 L14.625,1.083706 L15.32882,4.279886 C15.3826478,4.442386 15.49132,4.604886 15.70764,4.658706 C16.14132,4.821206 16.57396,4.983706 17.00764,5.200026 C17.17014,5.3086982 17.38646,5.2538538 17.54896,5.200026 L20.31146,3.412526 L22.64028,5.741346 L20.85278,8.503846 C20.7441078,8.666346 20.7441078,8.882666 20.85278,9.045166 C21.0691078,9.478846 21.2316,9.911486 21.3941,10.345166 C21.4479278,10.507666 21.6104278,10.670166 21.77292,10.723986 L24.91632,11.375 L24.91632,14.625 Z" id="Fill-2"></path>
                </g>
            </g>
        </g>
    </g>
</svg>