<?xml version="1.0" encoding="UTF-8"?>
<svg width="34px" height="34px" viewBox="0 0 34 34" version="1.1" xmlns="http://www.w3.org/2000/svg" xmlns:xlink="http://www.w3.org/1999/xlink">
    <!-- Generator: Sketch 49.1 (51147) - http://www.bohemiancoding.com/sketch -->
    <title>icon</title>
    <desc>Created with Sketch.</desc>
    <defs></defs>
    <g id="Page-1" stroke="none" stroke-width="1" fill="none" fill-rule="evenodd">
        <g id="dashboard" transform="translate(-34.000000, -431.000000)" fill="#000000">
            <g id="tiles" transform="translate(-198.000000, 253.000000)">
                <g id="-1" transform="translate(198.000000, 178.000000)">
                    <g id="icon" transform="translate(34.000000, 0.000000)">
                        <path d="M9.81076593,31.9999035 C4.6754999,31.9999035 0,27.664285 0,22.9029633 C0,21.3639531 0.843250536,18.450147 4.03653221,18.450147 C5.50141839,18.450147 6.37843354,18.7746497 7.15277105,19.0587468 C7.86763994,19.3226584 8.48522798,19.5515624 9.56088701,19.5515624 C11.2703591,19.5515624 11.939286,17.5978108 12.1041652,17 L13.494707,17.37972 C13.2622743,18.2239558 12.2906317,20.9883695 9.56092161,20.9883695 C8.22576628,20.9883695 7.42575936,20.6921424 6.65007265,20.408035 C5.92437556,20.140087 5.24060749,19.8882984 4.03518301,19.8882984 C1.53245001,19.8882984 1.44326437,22.5974225 1.44056597,22.9070997 C1.44056597,26.9142208 5.42831938,30.5645789 9.80941673,30.5645789 C14.6025393,30.5645789 15.8458797,27.4757693 16.568913,21.386979 L18,21.5552884 C17.3472981,27.0570226 16.2297101,32 9.81069674,32 L9.81076593,31.9999035 Z" id="Fill-1"></path>
                        <path d="M12.4461575,18 C6.9402514,17.3473508 2,16.2285039 2,9.80997406 C2,4.67512251 6.33564617,0 11.0969985,0 C12.6360187,0 15.5498437,0.843182473 15.5498437,4.0362064 C15.5498437,5.50097434 15.2266867,6.37791871 14.9412399,7.15219372 C14.6773266,7.8670049 14.4484212,8.4845431 14.4484212,9.56011531 C14.4484212,11.2694494 16.4021854,11.9383223 17,12.1031882 L16.6202776,13.4936178 C15.7760363,13.2612038 13.0116047,12.2896397 13.0116047,9.5601499 C13.0116047,8.22510233 13.3078337,7.42515999 13.5932874,6.64953589 C13.8612371,5.92524647 14.1130273,5.24018449 14.1130273,4.0362064 C14.1130273,1.53367541 11.4038857,1.44449697 11.0955508,1.44179879 C7.08840381,1.44179879 3.43526457,5.42923033 3.43526457,9.80997406 C3.43526457,14.6040934 6.52543844,15.8459498 12.6129238,16.5689248 L12.4461575,18 Z" id="Fill-2"></path>
                        <path d="M22.9024071,33.9999655 C21.3635419,33.9999655 18.4500103,33.1567182 18.4500103,29.9634488 C18.4500103,28.4985682 18.7744824,27.6215565 19.0585528,26.8472219 C19.3237837,26.1323558 19.5513219,25.5120717 19.5513219,24.437766 C19.5513219,22.7269513 17.5977544,22.0607254 17,21.8958467 L17.37834,20.5053103 C18.2251846,20.736393 20.9894068,21.7039496 20.9894068,24.4376968 C20.9894068,25.772847 20.6932076,26.5728509 20.4091269,27.3485346 C20.1412042,28.0755781 19.8894394,28.7593436 19.8894394,29.9647634 C19.8894394,32.4661373 22.5983082,32.5580209 22.9079562,32.5593701 C26.9146997,32.5593701 30.5647138,28.5688648 30.5647138,24.1905518 C30.5647138,19.3974477 27.4761953,18.154112 21.3879787,17.4310815 L21.5562723,16 C27.0588667,16.6526994 32,17.7716323 32,24.1906556 C31.9986524,29.3245182 27.663411,34 22.9025381,34 L22.9024071,33.9999655 Z" id="Fill-3"></path>
                        <path d="M21.8961867,17 L20.5055701,16.6216965 C20.736666,15.7749336 21.7042785,13.0109782 24.4381833,13.0109782 C25.7734105,13.0109782 26.5734604,13.3071487 27.3491889,13.5925461 C28.0762743,13.8590989 28.7600792,14.1121835 29.9655685,14.1121835 C32.467087,14.1121835 32.5589759,11.4035761 32.5603252,11.095302 C32.5603252,7.08894514 28.5695895,3.43652621 24.1910241,3.43652621 C19.3976436,3.43652621 18.1542362,6.52609077 17.431164,12.6123758 L16,12.4440985 C16.652737,6.93927799 17.7717345,2 24.1911279,2 C29.3239025,2.00269158 34,6.33754904 34,11.0976179 C34,12.6363347 33.1567041,15.5495851 29.9632506,15.5495851 C28.4982855,15.5495851 27.6212232,15.2251443 26.846844,14.9411013 C26.1319366,14.6772401 25.5116168,14.4497238 24.4372492,14.4497238 C22.7276851,14.4483797 22.0600715,16.4017587 21.8965326,16.9994555 L21.8961867,17 Z" id="Fill-4"></path>
                        <path d="M17,22 C14.2421479,22 12,19.7564806 12,17 C12,14.2421479 14.2435194,12 17,12 C19.7578521,12 22,14.2435194 22,17 C22,19.7578521 19.7578179,22 17,22 Z M16.5,13 C14.5708677,13 13,14.5708677 13,16.5 C13,18.4304425 14.5708677,20 16.5,20 C18.4304425,20 20,18.4304425 20,16.5 C20,14.5708677 18.4304425,13 16.5,13 Z" id="Fill-5"></path>
                    </g>
                </g>
            </g>
        </g>
    </g>
</svg>