<svg xmlns="http://www.w3.org/2000/svg" xmlns:xlink="http://www.w3.org/1999/xlink" width="34" height="34" version="1.1"><rect id="backgroundrect" width="100%" height="100%" x="0" y="0" fill="none" stroke="none"/>
    <!-- Generator: Sketch 49.1 (51147) - http://www.bohemiancoding.com/sketch -->
    <title>icon</title>
    <desc>Created with Sketch.</desc>
    <defs/>
    
<g class="currentLayer" style=""><title>Layer 1</title><g id="Page-1" stroke="#dadada" stroke-width="1" fill="#b6b6b6" fill-rule="evenodd" class="selected" stroke-opacity="1" fill-opacity="1">
        <g id="dashboard" fill="#b6b6b6" stroke="#dadada" stroke-opacity="1" fill-opacity="1">
            <g id="tiles" stroke="#dadada" stroke-opacity="1" fill="#b6b6b6" fill-opacity="1">
                <g id="-1" stroke="#dadada" stroke-opacity="1" fill="#b6b6b6" fill-opacity="1">
                    <g id="icon" stroke="#dadada" stroke-opacity="1" fill="#b6b6b6" fill-opacity="1">
                        <path d="M9.810765930000002,31.999903500000016 C4.6754999000000055,31.999903500000016 0,27.664285000000007 0,22.90296330000001 C0,21.363953100000003 0.8432505359999993,18.450147000000015 4.03653220999999,18.450147000000015 C5.501418389999998,18.450147000000015 6.378433540000003,18.774649699999998 7.152771050000013,19.058746799999994 C7.867639940000004,19.322658400000023 8.48522797999999,19.551562400000023 9.560887009999988,19.551562400000023 C11.270359100000007,19.551562400000023 11.93928600000001,17.59781079999999 12.104165200000011,17 L13.494707000000005,17.37972000000002 C13.262274300000001,18.2239558 12.290631700000006,20.988369499999976 9.560921610000008,20.988369499999976 C8.225766280000016,20.988369499999976 7.425759360000001,20.692142400000023 6.6500726499999985,20.408034999999984 C5.924375559999987,20.140086999999994 5.240607490000002,19.888298399999996 4.035183009999997,19.888298399999996 C1.532450009999991,19.888298399999996 1.4432643700000085,22.597422499999993 1.4405659699999944,22.907099700000003 C1.4405659699999944,26.91422080000001 5.428319380000005,30.564578900000015 9.80941673000001,30.564578900000015 C14.60253929999999,30.564578900000015 15.845879700000012,27.475769300000024 16.56891300000001,21.386978999999997 L18,21.555288399999995 C17.34729809999999,27.057022599999982 16.229710100000005,32 9.810696739999997,32 L9.810765930000002,31.999903500000016 z" id="Fill-1" stroke="#dadada" stroke-opacity="1" fill="#b6b6b6" fill-opacity="1"/>
                        <path d="M12.446157499999998,18 C6.940251399999994,17.347350800000015 2,16.22850390000002 2,9.809974060000002 C2,4.675122509999994 6.33564616999999,0 11.096998499999984,0 C12.636018699999994,0 15.549843699999997,0.843182473000013 15.549843699999997,4.036206400000026 C15.549843699999997,5.5009743400000275 15.226686700000016,6.377918710000017 14.9412399,7.152193720000014 C14.677326600000015,7.8670048999999835 14.448421199999984,8.484543099999996 14.448421199999984,9.560115310000015 C14.448421199999984,11.269449399999985 16.402185400000008,11.938322299999982 17,12.103188199999977 L16.62027760000001,13.493617799999981 C15.776036299999987,13.261203799999976 13.011604699999992,12.28963970000001 13.011604699999992,9.560149899999999 C13.011604699999992,8.225102330000027 13.307833700000003,7.425159989999997 13.593287400000008,6.6495358899999815 C13.861237100000011,5.9252464699999905 14.113027299999999,5.24018448999999 14.113027299999999,4.036206400000026 C14.113027299999999,1.5336754100000007 11.40388569999999,1.444496969999989 11.095550800000012,1.441798790000007 C7.088403809999988,1.441798790000007 3.4352645700000153,5.429230329999996 3.4352645700000153,9.809974060000002 C3.4352645700000153,14.60409340000001 6.525438440000016,15.845949799999971 12.612923800000004,16.56892479999999 L12.446157499999998,18 z" id="Fill-2" stroke="#dadada" stroke-opacity="1" fill="#b6b6b6" fill-opacity="1"/>
                        <path d="M22.902407100000005,33.99996550000003 C21.3635419,33.99996550000003 18.450010300000002,33.1567182 18.450010300000002,29.96344879999998 C18.450010300000002,28.498568200000022 18.77448240000001,27.621556499999997 19.0585528,26.847221900000022 C19.323783700000007,26.132355800000028 19.551321900000005,25.51207169999998 19.551321900000005,24.43776600000001 C19.551321900000005,22.726951299999996 17.597754399999985,22.060725400000024 17,21.895846699999993 L17.37834000000001,20.50531030000002 C18.225184600000006,20.73639300000002 20.989406800000012,21.703949599999987 20.989406800000012,24.437696800000026 C20.989406800000012,25.772847000000013 20.693207599999994,26.57285089999999 20.40912689999999,27.348534599999994 C20.141204200000004,28.07557810000003 19.889439400000015,28.759343600000022 19.889439400000015,29.96476339999998 C19.889439400000015,32.466137300000014 22.59830819999999,32.558020899999974 22.9079562,32.559370100000024 C26.9146997,32.559370100000024 30.564713799999993,28.56886480000003 30.564713799999993,24.19055179999998 C30.564713799999993,19.397447699999987 27.4761953,18.154111999999998 21.38797869999999,17.431081500000005 L21.55627229999999,16 C27.05886670000001,16.652699400000017 32,17.77163230000002 32,24.190655600000014 C31.998652399999997,29.3245182 27.663410999999996,34 22.902538100000015,34 L22.902407100000005,33.99996550000003 z" id="Fill-3" stroke="#dadada" stroke-opacity="1" fill="#b6b6b6" fill-opacity="1"/>
                        <path d="M21.896186699999987,17 L20.5055701,16.621696499999985 C20.736666000000014,15.774933599999997 21.704278499999987,13.010978200000011 24.43818329999999,13.010978200000011 C25.77341050000001,13.010978200000011 26.573460399999988,13.307148700000027 27.3491889,13.592546099999993 C28.076274299999994,13.859098899999992 28.760079200000007,14.112183500000015 29.96556849999999,14.112183500000015 C32.46708699999999,14.112183500000015 32.55897590000001,11.40357610000001 32.560325199999994,11.095302000000004 C32.560325199999994,7.088945140000021 28.569589500000006,3.436526210000011 24.191024099999993,3.436526210000011 C19.39764360000001,3.436526210000011 18.154236200000014,6.526090769999996 17.431163999999995,12.612375799999995 L16,12.444098499999996 C16.652737000000002,6.939277989999994 17.771734500000008,2 24.191127899999998,2 C29.323902500000003,2.0026915799999756 34,6.337549039999999 34,11.097617899999989 C34,12.63633470000002 33.156704099999985,15.549585100000002 29.96325060000001,15.549585100000002 C28.49828550000001,15.549585100000002 27.621223200000003,15.22514430000001 26.846844000000004,14.941101300000014 C26.13193659999999,14.677240100000006 25.511616800000013,14.449723800000015 24.437249199999997,14.449723800000015 C22.727685100000002,14.448379699999975 22.060071499999992,16.401758700000016 21.8965326,16.99945550000001 L21.896186699999987,17 z" id="Fill-4" stroke="#dadada" stroke-opacity="1" fill="#b6b6b6" fill-opacity="1"/>
                        <path d="M17,22 C14.242147899999992,22 12,19.756480599999975 12,17 C12,14.24214790000002 14.243519399999997,12 17,12 C19.757852100000008,12 22,14.243519400000025 22,17 C22,19.75785209999998 19.757817899999992,22 17,22 zM16.5,13 C14.570867700000008,13 13,14.570867700000008 13,16.5 C13,18.430442500000026 14.570867700000008,20 16.5,20 C18.430442499999998,20 20,18.430442500000026 20,16.5 C20,14.570867700000008 18.430442499999998,13 16.5,13 z" id="Fill-5" stroke="#dadada" stroke-opacity="1" fill="#b6b6b6" fill-opacity="1"/>
                    </g>
                </g>
            </g>
        </g>
    </g></g></svg>